<svg id="coursework-icon" xmlns="http://www.w3.org/2000/svg" xmlns:xlink="http://www.w3.org/1999/xlink" width="25" height="25" viewBox="0 0 25 25">
  <defs>
    <clipPath id="clip-path">
      <rect id="Rectangle_461" data-name="Rectangle 461" width="25" height="25" fill="none" stroke="#ff" stroke-width="1"/>
    </clipPath>
  </defs>
  <line id="Line_504" data-name="Line 504" x2="5.208" transform="translate(2.604 5.208)" fill="none" stroke="#000" stroke-linecap="round" stroke-linejoin="round" stroke-width="1"/>
  <line id="Line_505" data-name="Line 505" x2="13.542" transform="translate(2.604 9.896)" fill="none" stroke="#000" stroke-linecap="round" stroke-linejoin="round" stroke-width="1"/>
  <line id="Line_506" data-name="Line 506" x2="13.542" transform="translate(2.604 12.5)" fill="none" stroke="#000" stroke-linecap="round" stroke-linejoin="round" stroke-width="1"/>
  <line id="Line_507" data-name="Line 507" x2="13.542" transform="translate(2.604 15.104)" fill="none" stroke="#000" stroke-linecap="round" stroke-linejoin="round" stroke-width="1"/>
  <line id="Line_508" data-name="Line 508" x2="13.542" transform="translate(2.604 17.708)" fill="none" stroke="#000" stroke-linecap="round" stroke-linejoin="round" stroke-width="1"/>
  <line id="Line_509" data-name="Line 509" x2="6.25" transform="translate(2.604 20.313)" fill="none" stroke="#000" stroke-linecap="round" stroke-linejoin="round" stroke-width="1"/>
  <g id="Group_694" data-name="Group 694">
    <g id="Group_693" data-name="Group 693" clip-path="url(#clip-path)">
      <path id="Path_2091" data-name="Path 2091" d="M44.125,4.563V21.75l-1.562,3.125L41,21.75V4.563a1.563,1.563,0,0,1,3.125,0Z" transform="translate(-19.646 -1.438)" fill="none" stroke="#000" stroke-linecap="round" stroke-linejoin="round" stroke-width="1"/>
      <rect id="Rectangle_459" data-name="Rectangle 459" width="3.125" height="2.083" transform="translate(21.354 4.167)" fill="none" stroke="#000" stroke-linecap="round" stroke-linejoin="round" stroke-width="1"/>
      <rect id="Rectangle_460" data-name="Rectangle 460" width="17.708" height="23.958" transform="translate(0.521 0.521)" fill="none" stroke="#000" stroke-linecap="round" stroke-linejoin="round" stroke-width="1"/>
      <path id="Path_2092" data-name="Path 2092" d="M20,10.646,21.563,7l1.563,3.646" transform="translate(-9.583 -3.354)" fill="none" stroke="#000" stroke-linecap="round" stroke-linejoin="round" stroke-width="1"/>
      <line id="Line_510" data-name="Line 510" x2="2.083" transform="translate(10.938 6.25)" fill="none" stroke="#000" stroke-linecap="round" stroke-linejoin="round" stroke-width="1"/>
      <line id="Line_511" data-name="Line 511" y2="2.083" transform="translate(15.104 3.125)" fill="none" stroke="#000" stroke-linecap="round" stroke-linejoin="round" stroke-width="1"/>
      <line id="Line_512" data-name="Line 512" x2="2.083" transform="translate(14.063 4.167)" fill="none" stroke="#000" stroke-linecap="round" stroke-linejoin="round" stroke-width="1"/>
      <path id="Path_2093" data-name="Path 2093" d="M44.125,38.422v.1l-1.562,3.125L41,38.521v-.1a3.1,3.1,0,0,1,3.125,0Z" transform="translate(-19.646 -18.208)" fill="none" stroke="#000" stroke-linecap="round" stroke-linejoin="round" stroke-width="1"/>
    </g>
  </g>
</svg>
