{
    "key": "group_62d9bc6dc3a05",
    "title": "Theme Colors",
    "fields": [
        {
            "key": "field_62d9bc7458f34",
            "label": "",
            "name": "color",
            "type": "color_picker",
            "instructions": "",
            "required": 0,
            "conditional_logic": 0,
            "wrapper": {
                "width": "",
                "class": "",
                "id": ""
            },
            "default_value": "",
            "enable_opacity": 0,
            "return_format": "string",
            "display": "palette",
            "color_picker": 1,
            "absolute": 0,
            "input": 1,
            "allow_null": 1,
            "theme_colors": 0,
            "colors": {
                "#BE1E2D": "#BE1E2D",
                "#8DC63F": "#8DC63F",
                "#1D488E": "#1D488E",
                "#091F40": "#091F40",
                "#DEEDFE": "#DEEDFE",
                "#F4F7F6": "#F4F7F6"
            },
            "acfe_field_group_condition": 0,
            "button_label": "Select Color"
        }
    ],
    "location": [
        [
            {
                "param": "post_type",
                "operator": "==",
                "value": "post"
            }
        ]
    ],
    "menu_order": 0,
    "position": "normal",
    "style": "default",
    "label_placement": "left",
    "instruction_placement": "label",
    "hide_on_screen": "",
    "active": false,
    "description": "",
    "show_in_rest": 0,
    "acfe_autosync": [
        "json"
    ],
    "acfe_form": 1,
    "acfe_display_title": "",
    "acfe_permissions": "",
    "acfe_meta": "",
    "acfe_note": "",
    "modified": 1660292036
}