<svg xmlns="http://www.w3.org/2000/svg" xmlns:xlink="http://www.w3.org/1999/xlink" width="22.5" height="22.32" viewBox="0 0 22.5 22.32">
  <defs>
    <clipPath id="clip-path">
      <rect id="Rectangle_455" data-name="Rectangle 455" width="22.5" height="22.32" fill="none" stroke="#000" stroke-width="1"/>
    </clipPath>
  </defs>
  <g id="activity-icon" transform="translate(0 0)">
    <g id="Group_684" data-name="Group 684" transform="translate(0 0)" clip-path="url(#clip-path)">
      <path id="Path_2066" data-name="Path 2066" d="M22.479,17.884h0a4.223,4.223,0,0,1-2.533-.844l-.529-.4a11.106,11.106,0,0,1-4.442-8.885V3.611A1.774,1.774,0,0,1,16.5,1.855L22.479,1l5.98.855a1.774,1.774,0,0,1,1.524,1.756V7.758a11.106,11.106,0,0,1-4.442,8.885l-.529.4A4.223,4.223,0,0,1,22.479,17.884Z" transform="translate(-7.952 -0.531)" fill="none" stroke="#000" stroke-linecap="round" stroke-linejoin="round" stroke-width="1"/>
      <path id="Path_2067" data-name="Path 2067" d="M23.665,12.345a2.345,2.345,0,1,0-4.69,0Z" transform="translate(-10.076 -5.31)" fill="none" stroke="#000" stroke-linecap="round" stroke-linejoin="round" stroke-width="1"/>
      <path id="Path_2068" data-name="Path 2068" d="M37.665,12.345a2.345,2.345,0,1,0-4.69,0Z" transform="translate(-17.51 -5.31)" fill="none" stroke="#000" stroke-linecap="round" stroke-linejoin="round" stroke-width="1"/>
      <path id="Path_2069" data-name="Path 2069" d="M30.479,22a3.752,3.752,0,1,1-7.5,0Z" transform="translate(-12.2 -11.682)" fill="none" stroke="#000" stroke-linecap="round" stroke-linejoin="round" stroke-width="1"/>
      <path id="Path_2070" data-name="Path 2070" d="M7.554,11.29,2.222,13.035a1.781,1.781,0,0,0-1.2,1.993l.722,4.085A11.086,11.086,0,0,0,7.667,27.09l.591.3a4.211,4.211,0,0,0,4.985-.877l.45-.483a10.936,10.936,0,0,0,1.867-2.715" transform="translate(-0.531 -5.995)" fill="none" stroke="#000" stroke-linecap="round" stroke-linejoin="round" stroke-width="1"/>
      <path id="Path_2071" data-name="Path 2071" d="M11.041,22.944a2.345,2.345,0,1,0-4.619.814Z" transform="translate(-3.391 -11.154)" fill="none" stroke="#000" stroke-linecap="round" stroke-linejoin="round" stroke-width="1"/>
      <path id="Path_2072" data-name="Path 2072" d="M15.907,29.63c-.089.009-.183.023-.272.038a3.757,3.757,0,0,0-3.044,4.348l7.016-1.238" transform="translate(-6.656 -15.734)" fill="none" stroke="#000" stroke-linecap="round" stroke-linejoin="round" stroke-width="1"/>
    </g>
  </g>
</svg>
